../pdf/EN/A4/Print_ma8-ra4-g4-ma1-ma11-ja1-scg2-ma4.svg__ted_files-job_399.pdf
../pdf/EN/A4/Print_philo2-philo1-mos6-mos3-mos5-mos2-mos1-mos4.svg__rs__e.g-job_406.pdf
../pdf/EN/A4/Print_dc3-dc8-dc10-dc9-dc1-dc4-dc7-dc5.svg__ted_files-job_429.pdf
../pdf/EN/A4/Print_m48-m95-m63-m54-m16-m90-m3-m13.svg__rated_files-job_410.pdf
../pdf/EN/A4/Print_t20-t6-t30-t22-t21-t36-t27-t18.svg__rated_files-job_419.pdf
../pdf/EN/A4/Print_scg6-m120-m121-m122-m123-m124-m125-a23.svg__les-job_1.pdf
../pdf/EN/A4/Print_m100-m8-m78-m6-m97-m65-m10-m38.svg__rated_files-job_430.pdf
../pdf/EN/A4/Print_m55-m93-m84-m83-m2-m22-m30-m42.svg__rated_files-job_417.pdf
../pdf/EN/A4/Print_g1-at1-g2-dt2-dt3-dt1-dc6-dc2.svg__erated_files-job_418.pdf
../pdf/EN/A4/Print_m81-m17-m15-m91-m26-m59-m96-m87.svg__ated_files-job_427.pdf
../pdf/EN/A4/Print_m25-m64-m103-m67-m7-m58-m32-m23.svg__ated_files-job_415.pdf
../pdf/EN/A4/Print_m102-bio1-b4-b3-b1-b2-eye1-endo1.svg__ted_files-job_422.pdf
../pdf/EN/A4/Print_t20-t6-t30-t22-t21-t36-t27-t18.svg__rated_files-job_505.pdf
../pdf/EN/A4/Print_m92-m60-m29-m62-m37-m66-m61-m49.svg__ated_files-job_407.pdf
../pdf/EN/A4/Print_t10-t1-t23-gp1-c2-c1-env2-env1.svg__rated_files-job_412.pdf
../pdf/EN/A4/Print_t15-t25-t19-t11-t9-t29-t24-t4.svg__erated_files-job_424.pdf
../pdf/EN/A4/Print_m106-m107-m108-m109-m111-m112-m113.svg__d_files-job_480.pdf
../pdf/EN/A4/Print_scg3-ja3-ha1-ra5-ma3-ja7-ja4-ra3.svg__ted_files-job_400.pdf
../pdf/EN/A4/Print_t37-38.svg__le-job_16.pdf
../pdf/EN/A4/Print_bo1-smoke1-p8-p1-p3-p4-mp2-p6.svg__erated_files-job_414.pdf
../pdf/EN/A4/Print_m114-m115-m116-m117-m118-m119-m120-m121.svg__es-job_493.pdf
../pdf/EN/A4/Print_a14-a7-a5-a11-a13-a16-a12-m106.svg__-generated_files-job_420.pdf
../pdf/EN/A4/Print_a9-a17-a19-a15-a22-a13-a1-a8.svg__nerated_files-job_432.pdf
../pdf/EN/A4/Print_ja2-ma6-ja6-ma9-ra2-scg5-ma10-ma7.svg__ed_files-job_401.pdf
../pdf/EN/A4/Print_m9-m20-m80-m11-m99-m1-m5-t63.svg__nerated_files-job_421.pdf
../pdf/EN/A4/Print_co4-co6-co7-co8-co12-co10-co9-co11.svg__d_files-job_402.pdf
../pdf/EN/A4/Print_stsct1-stsct3-stsct2-e3-e4-e2-e1-e5.svg___files-job_431.pdf
../pdf/EN/A4/Print_mp1-p5-p7-p2-s1-s3-s4-s2.svg__x-generated_files-job_405.pdf
../pdf/EN/A4/Print_co1-c09-co2-co5-c12-co3-q1-cpu1.svg__ated_files-job_425.pdf
../pdf/EN/A4/Print_m45-m21-m89-m46-m35-m53-m28-m47.svg__ated_files-job_398.pdf
../pdf/EN/A4/Print_m107-m108-m109-m110-m111-m112-m113.svg__d_files-job_492.pdf
../pdf/EN/A4/Print_t28-t34-t5-t3-t13-t35-t16-t7.svg__nerated_files-job_433.pdf
../pdf/EN/A4/Print_m18-m12-m86-m85-m70-m68-m72-m31.svg__ated_files-job_413.pdf
../pdf/EN/A4/Print_m94-m51-m44-m98-m101-m15-mod2-m88-t61.svg__iles-job_409.pdf
../pdf/EN/A4/Print_a14-a7-a5-a11-a13-a16-a12.svg__-generated_files-job_420.pdf
../pdf/EN/A4/Print_m66-m113-m114-m115-m116-m117.svg__nerated_files-job_479.pdf
../pdf/EN/A4/Print_r1-ibm1-c64-dp3-dp1-dp4-dp2-sk1.svg__ated_files-job_423.pdf
../pdf/EN/A4/Print_t8-t31-t33-t12-t26-t32-t14-t2.svg__erated_files-job_408.pdf
../pdf/EN/A4/Print_templateA4.svg__using_non-Linux-generated_files-job_507.pdf
../pdf/EN/A4/Print_m57-m41-m15-mod-m50-m69-m77-m19-m52.svg___files-job_416.pdf
../pdf/EN/A4/Print_env3-a2-a10-a4-a6-a3-a21-a20.svg__nerated_files-job_428.pdf
../pdf/EN/A4/Print_m105-m43-m56-m74-m4-m73-m104-m27.svg__ted_files-job_404.pdf
../pdf/EN/A4/Print_ra1-scg4-w1-ma5-g3-scg1-ma2-ja5.svg__ated_files-job_403.pdf
../pdf/EN/A4/Print_m40-m82-m14-m71-m79-m75-m76-m24.svg__ated_files-job_411.pdf
